<?xml version="1.0"?>
<svg width="396.24" height="350.48" xmlns="http://www.w3.org/2000/svg" xmlns:svg="http://www.w3.org/2000/svg">
 <g class="layer">
  <title>Layer 1</title>
  <path d="m204.892,82.109c0,0 38.974,39.421 27.501,105.45c38.975,-15.581 54.109,-41.698 58.662,-67.859c0,0 13.395,-49.511 33.93,-70.137c-40.804,6.43 -44.913,-9.643 -120.093,32.546" fill="#1AB99B" id="svg_2"/>
  <path d="m212.704,202.203l0,0c0.938,-5.045 15.939,-56.431 -13.84,-98.218c-49.868,-55.314 -125.004,-63.127 -125.004,-63.127c14.644,28.438 15.134,55.002 31.251,109.111c19.286,56.029 90.941,59.913 96.254,59.913c4.822,7.634 15.849,17.858 41.116,23.171l2.813,-13.394c-21.787,-4.465 -29.777,-12.992 -32.591,-17.635m-70.269,-69.288c-5.804,-18.75 -21.92,-50.314 -41.028,-66.967c0,0 56.654,14.956 89.289,121.12c-30.805,-9.331 -43.975,-39.823 -48.439,-54.242" fill="#1AB99B" id="svg_3"/>
  <path d="m81.852,20.518c-31.742,14.956 -44.421,51.52 -44.421,107.147c0,54.823 12.679,91.61 44.421,107.593l-3.527,13.93c-48.752,-17.01 -70.851,-55.047 -70.851,-121.031c0,-65.985 22.099,-104.558 70.851,-121.344l3.527,13.705z" fill="#53585E" id="svg_4"/>
  <path d="m316.593,6.812c48.706,16.742 70.806,54.823 70.806,121.299c0,66.476 -22.054,104.066 -70.806,121.076l-3.795,-13.707c31.742,-15.981 44.421,-52.814 44.421,-107.592c0,-55.851 -12.679,-92.37 -44.421,-107.147l3.795,-13.929z" fill="#53585E" id="svg_5"/>
  <path d="m54.874,327.005c-4.795,1.84 -9.905,2.723 -15.041,2.601c-12.678,0 -18.742,-5.513 -16.773,-19.413c1.811,-13.109 6.812,-18.465 20.042,-18.465c5.209,-0.086 10.389,0.795 15.277,2.598l-1.812,7.875l-11.812,0c-5.355,0 -7.166,1.812 -7.875,8.308c-0.945,7.167 0.275,8.467 5.512,8.467c3.945,0.021 7.888,-0.176 11.812,-0.592l0.67,8.621z" fill="#53585E" id="svg_6"/>
  <path d="m101.139,311.295c-1.969,13.545 -7.442,18.311 -21.223,18.311s-19.687,-5.198 -17.6,-19.333c2.087,-14.135 7.403,-18.545 21.341,-18.545s19.45,5.355 17.442,19.687m-25.12,-0.001c-1.023,7.402 -0.354,9.135 4.331,9.135c4.686,0 6.063,-2.244 7.206,-10.119c1.142,-7.521 0.354,-9.253 -3.937,-9.253c-4.292,0 -6.221,1.812 -7.442,10.276" fill="#53585E" id="svg_7"/>
  <path d="m142.954,328.738l-10.356,0l0,-6.063c-3.663,3.995 -8.694,6.469 -14.096,6.931c-8.386,0 -12.166,-5.946 -10.355,-19.688c1.969,-15.041 7.875,-18.152 15.749,-18.152c3.882,-0.008 7.757,0.334 11.576,1.025c-0.102,-2.474 0.003,-4.948 0.315,-7.403l1.221,-7.323l13.19,0l-7.244,50.673zm-13.663,-28.507c-5.512,0 -6.812,1.143 -7.875,9.488c-0.866,6.537 -1.024,9.136 2.244,8.899c3.075,-0.345 5.938,-1.734 8.111,-3.938l1.968,-14.607l-4.448,0.158z" fill="#53585E" id="svg_8"/>
  <path d="m188.193,326.73c-5.253,2.044 -10.861,3.021 -16.497,2.875c-15.355,0 -19.687,-6.734 -18.151,-19.333c1.654,-14.961 8.466,-18.545 21.419,-18.545c14.175,0 17.954,4.725 16.773,12.953c-1.024,6.733 -5.551,8.702 -15.041,9.411l-9.765,0.708c0,3.938 2.008,4.567 6.063,4.567c3.189,0 10.001,-0.354 14.332,-0.865l0.867,8.229zm-14.41,-19.412c3.268,-0.274 5,-0.787 5.276,-3.937c0.236,-2.402 -0.709,-2.835 -4.332,-2.758c-4.41,0 -5.866,1.38 -7.008,7.247l6.064,-0.552z" fill="#53585E" id="svg_9"/>
  <path d="m220.046,282.593c-4.409,0 -6.22,1.023 -6.889,5.63l-0.788,5.197l10.946,0l-0.906,5.435l-10.789,0l-4.764,33.939c-0.18,5.912 -5.118,10.56 -11.031,10.38c-0.154,-0.005 -0.31,-0.014 -0.465,-0.024c-2.923,-0.024 -5.842,-0.222 -8.742,-0.592l1.103,-5.196l5.434,0c4.331,0 6.142,-1.024 6.812,-5.631l4.646,-32.838l-6.3,0l0.472,-5.118l6.458,-0.354l0.866,-6.3c0.195,-5.889 5.13,-10.506 11.019,-10.31c0.187,0.007 0.373,0.018 0.557,0.033c3.459,-0.041 6.918,0.131 10.355,0.511l-1.141,5.198l-6.853,0.04z" fill="#1AB99B" id="svg_10"/>
  <path d="m253.042,299.089l-1.968,0c-3.938,0 -7.876,2.678 -13.979,7.167l-3.11,22.521l-7.009,0l5.001,-35.437l5.354,0l-0.354,8.111c5.631,-5.787 11.143,-9.056 15.749,-9.056l1.89,0l-1.574,6.694z" fill="#1AB99B" id="svg_11"/>
  <path d="m287.572,327.597c-4.704,1.446 -9.608,2.138 -14.529,2.048c-12.244,0 -16.419,-6.301 -14.686,-19.489c1.732,-13.191 6.732,-17.68 19.687,-17.68c11.575,0 14.411,4.331 13.387,11.458c-1.023,7.126 -5.394,9.528 -13.898,10.197l-12.245,1.103c0,7.088 3.269,8.544 8.898,8.544c3.937,0 8.978,-0.434 13.032,-0.866l0.354,4.685zm-10.04,-18.663c4.332,-0.275 6.221,-1.496 6.812,-5.552c0.669,-4.843 -1.811,-5 -7.441,-5c-7.166,0 -9.607,1.968 -11.143,11.811l11.772,-1.259z" fill="#1AB99B" id="svg_12"/>
  <path d="m306.944,311.218c-5.079,-2.402 -7.441,-5.119 -6.812,-10.277c0.788,-6.733 5.631,-8.622 14.923,-8.465c5.061,0.08 10.111,0.487 15.119,1.22l-0.867,4.923c-4.487,0 -8.7,-0.275 -14.056,-0.355c-5.354,-0.077 -7.874,0 -8.308,3.111c-0.434,3.109 1.3,3.425 4.213,4.725l9.687,4.331c5.512,2.521 7.874,4.765 7.008,10.197c-1.062,7.876 -6.812,8.82 -16.733,8.82c-4.65,0.06 -9.297,-0.244 -13.899,-0.905l0.788,-5.198c3.268,0.276 7.874,0.354 11.063,0.354c8.899,0 11.222,-0.708 11.812,-3.622c0.592,-2.914 -1.299,-3.032 -4.409,-4.489l-9.529,-4.37z" fill="#1AB99B" id="svg_13"/>
  <path d="m349.232,291.964c-0.41,2.931 -0.988,5.837 -1.733,8.7c6.143,-5.433 11.3,-8.188 16.341,-8.188c4.324,-0.464 8.205,2.666 8.669,6.989c0.111,1.038 0.016,2.089 -0.283,3.09l-3.937,26.341l-6.931,0l3.387,-24.608c0.591,-4.41 -0.236,-5.709 -3.269,-5.709c-4.331,0 -8.544,2.953 -14.607,7.875l-3.11,22.561l-7.009,0l7.167,-50.674l6.929,0l-1.614,13.623z" fill="#1AB99B" id="svg_14"/>
 </g>
</svg>